tb/TestVector20.vcd
$date
	Sat Jun 27 21:38:08 2020
$end
$version
	ModelSim Version 2020.1
$end
$timescale
	1ps
$end
$scope module AESTopTest $end
$var reg 128 ! plaintext_test [127:0] $end
$var reg 256 " key_test [255:0] $end
$var reg 128 # ciphertext_test [127:0] $end
$var reg 1 $ enable $end
$var reg 1 % reset $end
$var reg 1 & done $end
$var reg 1 ' clock $end
$var reg 1 ( clock_gated $end
$var reg 10 ) counter [9:0] $end
$upscope $end
$enddefinitions $end
#0
bx !
bx "
bx #
b0 $
b0 %
b0 &
b0 '
b0 (
b0 )
b0 %
b0 '
b0 $
b0 )
b0 (
b0 &
#10000
b1 '
b1 %
b1 $
b100010010001000110011010001000101010101100110011101111000100010011001101010101011101111001100110111011110111011111111 !
b1000000100000001100000100000001010000011000000111000010000000100100001010000010110000110000001101000011100000111100010000000100010001001000010011000101000001010100010110000101110001100000011001000110100001101100011100000111010001111000011111 "
b1 (
b1 )
#20000
b0 '
b0 (
#30000
b1 '
b1 (
b10 )
#40000
b0 '
b0 (
#50000
b1 '
b1 (
b11 )
#60000
b0 '
b0 (
#70000
b1 '
b1 (
b100 )
#80000
b0 '
b0 (
#90000
b1 '
b1 (
b101 )
#100000
b0 '
b0 (
#110000
b1 '
b1 (
b110 )
#120000
b0 '
b0 (
#130000
b1 '
b1 (
b111 )
#140000
b0 '
b0 (
#150000
b1 '
b1 (
b1000 )
#160000
b0 '
b0 (
#170000
b1 '
b1 (
b1001 )
#180000
b0 '
b0 (
#190000
b1 '
b1 (
b1010 )
#200000
b0 '
b0 (
#210000
b1 '
b1 (
b1011 )
#220000
b0 '
b0 (
#230000
b1 '
b1 (
b1100 )
#240000
b0 '
b0 (
#250000
b1 '
b1 (
b1101 )
#260000
b0 '
b0 (
#270000
b1 '
b1 (
b1110 )
#280000
b0 '
b0 (
#290000
b1 '
b1 (
b1111 )
#300000
b0 '
b0 (
#310000
b1 '
b1 (
b10000 )
#320000
b0 '
b0 (
#330000
b1 '
b1 (
b10001 )
#340000
b0 '
b0 (
#350000
b1 '
b1 (
b10010 )
#360000
b0 '
b0 (
#370000
b1 '
b1 (
b10011 )
#380000
b0 '
b0 (
#390000
b1 '
b1 (
b10100 )
#400000
b0 '
b0 (
#410000
b1 '
b1 (
b10101 )
#420000
b0 '
b0 (
#430000
b1 '
b1 (
b10110 )
#440000
b0 '
b0 (
#450000
b1 '
b1 (
b10111 )
#460000
b0 '
b0 (
#470000
b1 '
b1 (
b11000 )
#480000
b0 '
b0 (
#490000
b1 '
b1 (
b11001 )
#500000
b0 '
b0 (
#510000
b1 '
b1 (
b11010 )
#520000
b0 '
b0 (
#530000
b1 '
b1 (
b11011 )
#540000
b0 '
b0 (
#550000
b1 '
b1 (
b11100 )
#560000
b0 '
b0 (
#570000
b1 '
b1 (
b11101 )
#580000
b0 '
b0 (
#590000
b1 '
b1 (
b11110 )
#600000
b0 '
b0 (
#610000
b1 '
b1 (
b11111 )
#620000
b0 '
b0 (
#630000
b1 '
b1 (
b100000 )
#640000
b0 '
b0 (
#650000
b1 '
b1 (
b100001 )
#660000
b0 '
b0 (
#670000
b1 '
b1 (
b100010 )
#680000
b0 '
b0 (
#690000
b1 '
b1 (
b100011 )
#700000
b0 '
b0 (
#710000
b1 '
b1 (
b100100 )
#720000
b0 '
b0 (
#730000
b1 '
b1 (
b100101 )
#740000
b0 '
b0 (
#750000
b1 '
b1 (
b100110 )
#760000
b0 '
b0 (
#770000
b1 '
b1 (
b100111 )
#780000
b0 '
b0 (
#790000
b1 '
b1 (
b101000 )
#800000
b0 '
b0 (
#810000
b1 '
b1 (
b101001 )
#820000
b0 '
b0 (
#830000
b1 '
b1 (
b101010 )
#840000
b0 '
b0 (
#850000
b1 '
b1 (
b101011 )
#860000
b0 '
b0 (
#870000
b1 '
b1 (
b101100 )
#880000
b0 '
b0 (
#890000
b1 '
b1 (
b101101 )
#900000
b0 '
b0 (
#910000
b1 '
b1 (
b101110 )
#920000
b0 '
b0 (
#930000
b1 '
b1 (
b101111 )
#940000
b0 '
b0 (
#950000
b1 '
b1 (
b110000 )
#960000
b0 '
b0 (
#970000
b1 '
b1 (
b110001 )
#980000
b0 '
b0 (
#990000
b1 '
b1 (
b110010 )
#1000000
b0 '
b0 (
#1010000
b1 '
b1 (
b110011 )
#1020000
b0 '
b0 (
#1030000
b1 '
b1 (
b110100 )
#1040000
b0 '
b0 (
#1050000
b1 '
b1 (
b110101 )
#1060000
b0 '
b0 (
#1070000
b1 '
b1 (
b110110 )
#1080000
b0 '
b0 (
#1090000
b1 '
b1 (
b110111 )
#1100000
b0 '
b0 (
#1110000
b1 '
b1 (
b111000 )
#1120000
b0 '
b0 (
#1130000
b1 '
b1 (
b111001 )
#1140000
b0 '
b0 (
#1150000
b1 '
b1 (
b111010 )
#1160000
b0 '
b0 (
#1170000
b1 '
b1 (
b111011 )
#1180000
b0 '
b0 (
#1190000
b1 '
b1 (
b111100 )
#1200000
b0 '
b0 (
#1210000
b1 '
b1 (
b111101 )
#1220000
b0 '
b0 (
#1230000
b1 '
b1 (
b111110 )
#1240000
b0 '
b0 (
#1250000
b1 '
b1 (
b111111 )
#1260000
b0 '
b0 (
#1270000
b1 '
b1 (
b1000000 )
#1280000
b0 '
b0 (
#1290000
b1 '
b1 (
b1000001 )
#1300000
b0 '
b0 (
#1310000
b1 '
b1 (
b1000010 )
#1320000
b0 '
b0 (
#1330000
b1 '
b1 (
b1000011 )
#1340000
b0 '
b0 (
#1350000
b1 '
b1 (
b1000100 )
#1360000
b0 '
b0 (
#1370000
b1 '
b1 (
b1000101 )
#1380000
b0 '
b0 (
#1390000
b1 '
b1 (
b1000110 )
#1400000
b0 '
b0 (
#1410000
b1 '
b1 (
b1000111 )
#1420000
b0 '
b0 (
#1430000
b1 '
b1 (
b1001000 )
#1440000
b0 '
b0 (
#1450000
b1 '
b1 (
b1001001 )
#1460000
b0 '
b0 (
#1470000
b1 '
b1 (
b1001010 )
#1480000
b0 '
b0 (
#1490000
b1 '
b1 (
b1001011 )
#1500000
b0 '
b0 (
#1510000
b1 '
b1 (
b1001100 )
#1520000
b0 '
b0 (
#1530000
b1 '
b1 (
b1001101 )
#1540000
b0 '
b0 (
#1550000
b1 '
b1 (
b1001110 )
#1560000
b0 '
b0 (
#1570000
b1 '
b1 (
b1001111 )
#1580000
b0 '
b0 (
#1590000
b1 '
b1 (
b1010000 )
#1600000
b0 '
b0 (
#1610000
b1 '
b1 (
b1010001 )
#1620000
b0 '
b0 (
#1630000
b1 '
b1 (
b1010010 )
#1640000
b0 '
b0 (
#1650000
b1 '
b1 (
b1010011 )
#1660000
b0 '
b0 (
#1670000
b1 '
b1 (
b1010100 )
#1680000
b0 '
b0 (
#1690000
b1 '
b1 (
b1010101 )
#1700000
b0 '
b0 (
#1710000
b1 '
b1 (
b1010110 )
#1720000
b0 '
b0 (
#1730000
b1 '
b1 (
b1010111 )
#1740000
b0 '
b0 (
#1750000
b1 '
b1 (
b1011000 )
#1760000
b0 '
b0 (
#1770000
b1 '
b1 (
b1011001 )
#1780000
b0 '
b0 (
#1790000
b1 '
b1 (
b1011010 )
#1800000
b0 '
b0 (
#1810000
b1 '
b1 (
b1011011 )
#1820000
b0 '
b0 (
#1830000
b1 '
b1 (
b1011100 )
#1840000
b0 '
b0 (
#1850000
b1 '
b1 (
b1011101 )
#1860000
b0 '
b0 (
#1870000
b1 '
b1 (
b1011110 )
#1880000
b0 '
b0 (
#1890000
b1 '
b1 (
b1011111 )
#1900000
b0 '
b0 (
#1910000
b1 '
b1 (
b1100000 )
#1920000
b0 '
b0 (
#1930000
b1 '
b1 (
b1100001 )
#1940000
b0 '
b0 (
#1950000
b1 '
b1 (
b1100010 )
#1960000
b0 '
b0 (
#1970000
b1 '
b1 (
b1100011 )
#1980000
b0 '
b0 (
#1990000
b1 '
b1 (
b1100100 )
#2000000
b0 '
b0 (
#2010000
b1 '
b1 (
b1100101 )
#2020000
b0 '
b0 (
#2030000
b1 '
b1 (
b1100110 )
#2040000
b0 '
b0 (
#2050000
b1 '
b1 (
b1100111 )
#2060000
b0 '
b0 (
#2070000
b1 '
b1 (
b1101000 )
#2080000
b0 '
b0 (
#2090000
b1 '
b1 (
b1101001 )
#2100000
b0 '
b0 (
#2110000
b1 '
b1 (
b1101010 )
#2120000
b0 '
b0 (
#2130000
b1 '
b1 (
b1101011 )
#2140000
b0 '
b0 (
#2150000
b1 '
b1 (
b1101100 )
#2160000
b0 '
b0 (
#2170000
b1 '
b1 (
b1101101 )
#2180000
b0 '
b0 (
#2190000
b1 '
b1 (
b1101110 )
#2200000
b0 '
b0 (
#2210000
b1 '
b1 (
b1101111 )
#2220000
b0 '
b0 (
#2230000
b1 '
b1 (
b1110000 )
#2240000
b0 '
b0 (
#2250000
b1 '
b1 (
b1110001 )
#2260000
b0 '
b0 (
#2270000
b1 '
b1 (
b1110010 )
#2280000
b0 '
b0 (
#2290000
b1 '
b1 (
b1110011 )
#2300000
b0 '
b0 (
#2310000
b1 '
b1 (
b1110100 )
#2320000
b0 '
b0 (
#2330000
b1 '
b1 (
b1110101 )
#2340000
b0 '
b0 (
#2350000
b1 '
b1 (
b1110110 )
#2360000
b0 '
b0 (
#2370000
b1 '
b1 (
b1110111 )
#2380000
b0 '
b0 (
#2390000
b1 '
b1 (
b1111000 )
#2400000
b0 '
b0 (
#2410000
b1 '
b1 (
b1111001 )
#2420000
b0 '
b0 (
#2430000
b1 '
b1 (
b1111010 )
#2440000
b0 '
b0 (
#2450000
b1 '
b1 (
b1111011 )
#2460000
b0 '
b0 (
#2470000
b1 '
b1 (
b1111100 )
#2480000
b0 '
b0 (
#2490000
b1 '
b1 (
b1111101 )
#2500000
b0 '
b0 (
#2510000
b1 '
b1 (
b1111110 )
#2520000
b0 '
b0 (
#2530000
b1 '
b1 (
b1111111 )
#2540000
b0 '
b0 (
#2550000
b1 '
b1 (
b10000000 )
#2560000
b0 '
b0 (
#2570000
b1 '
b1 (
b10000001 )
#2580000
b0 '
b0 (
#2590000
b1 '
b1 (
b10000010 )
#2600000
b0 '
b0 (
#2610000
b1 '
b1 (
b10000011 )
#2620000
b0 '
b0 (
#2630000
b1 '
b1 (
b10000100 )
#2640000
b0 '
b0 (
#2650000
b1 '
b1 (
b10000101 )
#2660000
b0 '
b0 (
#2670000
b1 '
b1 (
b10000110 )
#2680000
b0 '
b0 (
#2690000
b1 '
b1 (
b10000111 )
#2700000
b0 '
b0 (
#2710000
b1 '
b1 (
b10001000 )
#2720000
b0 '
b0 (
#2730000
b1 '
b1 (
b10001001 )
#2740000
b0 '
b0 (
#2750000
b1 '
b1 (
b10001010 )
#2760000
b0 '
b0 (
#2770000
b1 '
b1 (
b10001011 )
#2780000
b0 '
b0 (
#2790000
b1 '
b1 (
b10001100 )
#2800000
b0 '
b0 (
#2810000
b1 '
b1 (
b10001101 )
#2820000
b0 '
b0 (
#2830000
b1 '
b1 (
b10001110 )
#2840000
b0 '
b0 (
#2850000
b1 '
b1 (
b10001111 )
#2860000
b0 '
b0 (
#2870000
b1 '
b1 (
b10010000 )
#2880000
b0 '
b0 (
#2890000
b1 '
b1 (
b10010001 )
#2900000
b0 '
b0 (
#2910000
b1 '
b1 (
b10010010 )
#2920000
b0 '
b0 (
#2930000
b1 '
b1 (
b10010011 )
#2940000
b0 '
b0 (
#2950000
b1 '
b1 (
b10010100 )
#2960000
b0 '
b0 (
#2970000
b1 '
b1 (
b10010101 )
#2980000
b0 '
b0 (
#2990000
b1 '
b1 (
b10010110 )
#3000000
b0 '
b0 (
#3010000
b1 '
b1 (
b10010111 )
#3020000
b0 '
b0 (
#3030000
b1 '
b1 (
b10011000 )
#3040000
b0 '
b0 (
#3050000
b1 '
b1 (
b10011001 )
#3060000
b0 '
b0 (
#3070000
b1 '
b1 (
b10011010 )
#3080000
b0 '
b0 (
#3090000
b1 '
b1 (
b10011011 )
#3100000
b0 '
b0 (
#3110000
b1 '
b1 (
b1 &
b10011100 )
#3120000
b0 '
b0 (
#3130000
b1 '
b1 (
b0 &
b10011101 )
b10001110101000101011011111001010010100010110011101000101101111111110101011111100010010011001000001001011010010010110000010001001 #
#3140000
b0 '
b0 (
#3150000
b1 '
b1 (
b10011110 )
#3160000
b0 '
b0 (
#3170000
b1 '
b1 (
b10011111 )
#3180000
b0 '
b0 (
#3190000
b1 '
b1 (
b10100000 )
#3200000
b0 '
b0 (
#3210000
b1 '
b1 (
b10100001 )
#3220000
b0 '
b0 (
#3230000
b1 '
b1 (
b10100010 )
#3240000
b0 '
b0 (
#3250000
b1 '
b1 (
b10100011 )
#3260000
b0 '
b0 (
#3270000
b1 '
b1 (
b10100100 )
#3280000
b0 '
b0 (
#3290000
b1 '
b1 (
b10100101 )
#3300000
b0 '
b0 (
#3310000
b1 '
b1 (
b10100110 )
#3320000
b0 '
b0 (
#3330000
b1 '
b1 (
b10100111 )
#3340000
b0 '
b0 (
#3350000
b1 '
b1 (
b10101000 )
#3360000
b0 '
b0 (
#3370000
b1 '
b1 (
b10101001 )
#3380000
b0 '
b0 (
#3390000
b1 '
b1 (
b10101010 )
#3400000
b0 '
b0 (
#3410000
b1 '
b1 (
b10101011 )
#3420000
b0 '
b0 (
#3430000
b1 '
b1 (
b10101100 )
#3440000
b0 '
b0 (
#3450000
b1 '
b1 (
b10101101 )
#3460000
b0 '
b0 (
#3470000
b1 '
b1 (
b10101110 )
#3480000
b0 '
b0 (
#3490000
b1 '
b1 (
b10101111 )
#3500000
b0 '
b0 (
#3510000
b1 '
b1 (
b10110000 )
#3520000
b0 '
b0 (
#3530000
b1 '
b1 (
b10110001 )
#3540000
b0 '
b0 (
#3550000
b1 '
b1 (
b10110010 )
#3560000
b0 '
b0 (
#3570000
b1 '
b1 (
b10110011 )
#3580000
b0 '
b0 (
#3590000
b1 '
b1 (
b10110100 )
#3600000
b0 '
b0 (
#3610000
b1 '
b1 (
b10110101 )
#3620000
b0 '
b0 (
#3630000
b1 '
b1 (
b10110110 )
#3640000
b0 '
b0 (
#3650000
b1 '
b1 (
b10110111 )
#3660000
b0 '
b0 (
#3670000
b1 '
b1 (
b10111000 )
#3680000
b0 '
b0 (
#3690000
b1 '
b1 (
b10111001 )
#3700000
b0 '
b0 (
#3710000
b1 '
b1 (
b10111010 )
#3720000
b0 '
b0 (
#3730000
b1 '
b1 (
b10111011 )
#3740000
b0 '
b0 (
#3750000
b1 '
b1 (
b10111100 )
#3760000
b0 '
b0 (
#3770000
b1 '
b1 (
b10111101 )
#3780000
b0 '
b0 (
#3790000
b1 '
b1 (
b10111110 )
#3800000
b0 '
b0 (
#3810000
b1 '
b1 (
b10111111 )
#3820000
b0 '
b0 (
#3830000
b1 '
b1 (
b11000000 )
#3840000
b0 '
b0 (
#3850000
b1 '
b1 (
b11000001 )
#3860000
b0 '
b0 (
#3870000
b1 '
b1 (
b11000010 )
#3880000
b0 '
b0 (
#3890000
b1 '
b1 (
b11000011 )
#3900000
b0 '
b0 (
#3910000
b1 '
b1 (
b11000100 )
#3920000
b0 '
b0 (
#3930000
b1 '
b1 (
b11000101 )
#3940000
b0 '
b0 (
#3950000
b1 '
b1 (
b11000110 )
#3960000
b0 '
b0 (
#3970000
b1 '
b1 (
b11000111 )
#3980000
b0 '
b0 (
#3990000
b1 '
b1 (
b11001000 )
#4000000
b0 '
b0 (
