tb/TestVector.vcd
$date
	Tue Jun 23 17:00:47 2020
$end
$version
	GTKWave Analyzer v3.3.103 (w)1999-2019 BSI
$end
$timescale
	1ps
$end
$scope module AESTopTest $end
$var wire 1 * reset $end
$var wire 128 ) plaintext_test[127:0] $end
$var wire 256 ( key_test[255:0] $end
$var wire 1 ' enable $end
$var wire 1 & done $end
$var wire 10 % counter[9:0] $end
$var wire 1 $ clock_gated $end
$var wire 1 # clock $end
$var wire 128 " ciphertext_test[127:0] $end
$upscope $end
$enddefinitions $end
#0
$dumpvars
0$
bx "
0'
0*
bx )
0#
b0 %
0&
bx (
$end
#10000
b1000000100000001100000100000001010000011000000111000010000000100100001010000010110000110000001101000011100000111100010000000100010001001000010011000101000001010100010110000101110001100000011001000110100001101100011100000111010001111000011111 (
b100010010001000110011010001000101010101100110011101111000100010011001101010101011101111001100110111011110111011111111 )
1'
1$
1*
1#
b1 %
#20000
0$
0#
#30000
1#
b10 %
1$
#40000
0$
0#
#50000
1#
1$
b11 %
#60000
0#
0$
#70000
1$
b100 %
1#
#80000
0#
0$
#90000
1$
1#
b101 %
#100000
0$
0#
#110000
1#
b110 %
1$
#120000
0$
0#
#130000
1#
1$
b111 %
#140000
0#
0$
#150000
1$
b1000 %
1#
#160000
0#
0$
#170000
1$
1#
b1001 %
#180000
0$
0#
#190000
1#
b1010 %
1$
#200000
0$
0#
#210000
1#
1$
b1011 %
#220000
0#
0$
#230000
1$
b1100 %
1#
#240000
0#
0$
#250000
1$
1#
b1101 %
#260000
0$
0#
#270000
1#
b1110 %
1$
#280000
0$
0#
#290000
1#
1$
b1111 %
#300000
0#
0$
#310000
1$
b10000 %
1#
#320000
0#
0$
#330000
1$
1#
b10001 %
#340000
0$
0#
#350000
1#
b10010 %
1$
#360000
0$
0#
#370000
1#
1$
b10011 %
#380000
0#
0$
#390000
1$
b10100 %
1#
#400000
0#
0$
#410000
1$
1#
b10101 %
#420000
0$
0#
#430000
1#
b10110 %
1$
#440000
0$
0#
#450000
1#
1$
b10111 %
#460000
0#
0$
#470000
1$
b11000 %
1#
#480000
0#
0$
#490000
1$
1#
b11001 %
#500000
0$
0#
#510000
1#
b11010 %
1$
#520000
0$
0#
#530000
1#
1$
b11011 %
#540000
0#
0$
#550000
1$
b11100 %
1#
#560000
0#
0$
#570000
1$
1#
b11101 %
#580000
0$
0#
#590000
1#
b11110 %
1$
#600000
0$
0#
#610000
1#
1$
b11111 %
#620000
0#
0$
#630000
1$
b100000 %
1#
#640000
0#
0$
#650000
1$
1#
b100001 %
#660000
0$
0#
#670000
1#
b100010 %
1$
#680000
0$
0#
#690000
1#
1$
b100011 %
#700000
0#
0$
#710000
1$
b100100 %
1#
#720000
0#
0$
#730000
1$
1#
b100101 %
#740000
0$
0#
#750000
1#
b100110 %
1$
#760000
0$
0#
#770000
1#
1$
b100111 %
#780000
0#
0$
#790000
1$
b101000 %
1#
#800000
0#
0$
#810000
1$
1#
b101001 %
#820000
0$
0#
#830000
1#
b101010 %
1$
#840000
0$
0#
#850000
1#
1$
b101011 %
#860000
0#
0$
#870000
1$
b101100 %
1#
#880000
0#
0$
#890000
1$
1#
b101101 %
#900000
0$
0#
#910000
1#
b101110 %
1$
#920000
0$
0#
#930000
1#
1$
b101111 %
#940000
0#
0$
#950000
1$
b110000 %
1#
#960000
0#
0$
#970000
1$
1#
b110001 %
#980000
0$
0#
#990000
1#
b110010 %
1$
#1000000
0$
0#
#1010000
1#
1$
b110011 %
#1020000
0#
0$
#1030000
1$
b110100 %
1#
#1040000
0#
0$
#1050000
1$
1#
b110101 %
#1060000
0$
0#
#1070000
1#
b110110 %
1$
#1080000
0$
0#
#1090000
1#
1$
b110111 %
#1100000
0#
0$
#1110000
1$
b111000 %
1#
#1120000
0#
0$
#1130000
1$
1#
b111001 %
#1140000
0$
0#
#1150000
1#
b111010 %
1$
#1160000
0$
0#
#1170000
1#
1$
b111011 %
#1180000
0#
0$
#1190000
1$
b111100 %
1#
#1200000
0#
0$
#1210000
1$
1#
b111101 %
#1220000
0$
0#
#1230000
1#
b111110 %
1$
#1240000
0$
0#
#1250000
1#
1$
b111111 %
#1260000
0#
0$
#1270000
1$
b1000000 %
1#
#1280000
0#
0$
#1290000
1$
1#
b1000001 %
#1300000
0$
0#
#1310000
1#
b1000010 %
1$
#1320000
0$
0#
#1330000
1#
1$
b1000011 %
#1340000
0#
0$
#1350000
1$
b1000100 %
1#
#1360000
0#
0$
#1370000
1$
1#
b1000101 %
#1380000
0$
0#
#1390000
1#
b1000110 %
1$
#1400000
0$
0#
#1410000
1#
1$
b1000111 %
#1420000
0#
0$
#1430000
1$
b1001000 %
1#
#1440000
0#
0$
#1450000
1$
1#
b1001001 %
#1460000
0$
0#
#1470000
1#
b1001010 %
1$
#1480000
0$
0#
#1490000
1#
1$
b1001011 %
#1500000
0#
0$
#1510000
1$
b1001100 %
1#
#1520000
0#
0$
#1530000
1$
1#
b1001101 %
#1540000
0$
0#
#1550000
1#
b1001110 %
1$
#1560000
0$
0#
#1570000
1#
1$
b1001111 %
#1580000
0#
0$
#1590000
1$
b1010000 %
1#
#1600000
0#
0$
#1610000
1$
1#
b1010001 %
#1620000
0$
0#
#1630000
1#
b1010010 %
1$
#1640000
0$
0#
#1650000
1#
1$
b1010011 %
#1660000
0#
0$
#1670000
1$
b1010100 %
1#
#1680000
0#
0$
#1690000
1$
1#
b1010101 %
#1700000
0$
0#
#1710000
1#
b1010110 %
1$
#1720000
0$
0#
#1730000
1#
1$
b1010111 %
#1740000
0#
0$
#1750000
1$
b1011000 %
1#
#1760000
0#
0$
#1770000
1$
1#
b1011001 %
#1780000
0$
0#
#1790000
1#
b1011010 %
1$
#1800000
0$
0#
#1810000
1#
1$
b1011011 %
#1820000
0#
0$
#1830000
1$
b1011100 %
1#
#1840000
0#
0$
#1850000
1$
1#
b1011101 %
#1860000
0$
0#
#1870000
1#
b1011110 %
1$
#1880000
0$
0#
#1890000
1#
1$
b1011111 %
#1900000
0#
0$
#1910000
1$
b1100000 %
1#
#1920000
0#
0$
#1930000
1$
1#
b1100001 %
#1940000
0$
0#
#1950000
1#
b1100010 %
1$
#1960000
0$
0#
#1970000
1#
1$
b1100011 %
#1980000
0#
0$
#1990000
1$
b1100100 %
1#
#2000000
0#
0$
#2010000
1$
1#
b1100101 %
#2020000
0$
0#
#2030000
1#
b1100110 %
1$
#2040000
0$
0#
#2050000
1#
1$
b1100111 %
#2060000
0#
0$
#2070000
1$
b1101000 %
1#
#2080000
0#
0$
#2090000
1$
1#
b1101001 %
#2100000
0$
0#
#2110000
1#
b1101010 %
1$
#2120000
0$
0#
#2130000
1#
1$
b1101011 %
#2140000
0#
0$
#2150000
1$
b1101100 %
1#
#2160000
0#
0$
#2170000
1$
1#
b1101101 %
#2180000
0$
0#
#2190000
1#
b1101110 %
1$
#2200000
0$
0#
#2210000
1#
1$
b1101111 %
#2220000
0#
0$
#2230000
1$
b1110000 %
1#
#2240000
0#
0$
#2250000
1$
1#
b1110001 %
#2260000
0$
0#
#2270000
1#
b1110010 %
1$
#2280000
0$
0#
#2290000
1#
1$
b1110011 %
#2300000
0#
0$
#2310000
1$
b1110100 %
1#
#2320000
0#
0$
#2330000
1$
1#
b1110101 %
#2340000
0$
0#
#2350000
1#
b1110110 %
1$
#2360000
0$
0#
#2370000
1#
1$
b1110111 %
#2380000
0#
0$
#2390000
1$
b1111000 %
1#
#2400000
0#
0$
#2410000
1$
1#
b1111001 %
#2420000
0$
0#
#2430000
1#
b1111010 %
1$
#2440000
0$
0#
#2450000
1#
1$
b1111011 %
#2460000
0#
0$
#2470000
1$
b1111100 %
1#
#2480000
0#
0$
#2490000
1$
1#
b1111101 %
#2500000
0$
0#
#2510000
1#
b1111110 %
1$
#2520000
0$
0#
#2530000
1#
1$
b1111111 %
#2540000
0#
0$
#2550000
1$
b10000000 %
1#
#2560000
0#
0$
#2570000
1$
1#
b10000001 %
#2580000
0$
0#
#2590000
1#
b10000010 %
1$
#2600000
0$
0#
#2610000
1#
1$
b10000011 %
#2620000
0#
0$
#2630000
1$
b10000100 %
1#
#2640000
0#
0$
#2650000
1$
1#
b10000101 %
#2660000
0$
0#
#2670000
1#
b10000110 %
1$
#2680000
0$
0#
#2690000
1#
1$
b10000111 %
#2700000
0#
0$
#2710000
1$
b10001000 %
1#
#2720000
0#
0$
#2730000
1$
1#
b10001001 %
#2740000
0$
0#
#2750000
1#
b10001010 %
1$
#2760000
0$
0#
#2770000
1#
1$
b10001011 %
#2780000
0#
0$
#2790000
1$
b10001100 %
1#
#2800000
0#
0$
#2810000
1$
1#
b10001101 %
#2820000
0$
0#
#2830000
1#
b10001110 %
1$
#2840000
0$
0#
#2850000
1#
1$
b10001111 %
#2860000
0#
0$
#2870000
1$
b10010000 %
1#
#2880000
0#
0$
#2890000
1$
1#
b10010001 %
#2900000
0$
0#
#2910000
1#
b10010010 %
1$
#2920000
0$
0#
#2930000
1#
1$
b10010011 %
#2940000
0#
0$
#2950000
1$
b10010100 %
1#
#2960000
0#
0$
#2970000
1$
1#
b10010101 %
#2980000
0$
0#
#2990000
1#
b10010110 %
1$
#3000000
0$
0#
#3010000
1#
1$
b10010111 %
#3020000
0#
0$
#3030000
1$
b10011000 %
1#
#3040000
0#
0$
#3050000
1$
1#
b10011001 %
#3060000
0$
0#
#3070000
1#
b10011010 %
1$
#3080000
0$
0#
#3090000
1#
1$
b10011011 %
#3100000
0#
0$
#3110000
1$
b10011100 %
1#
#3120000
0#
0$
#3130000
1$
1#
b10011101 %
#3140000
0$
0#
#3150000
1#
b10011110 %
1$
#3160000
0$
0#
#3170000
1#
1$
b10011111 %
#3180000
0#
0$
#3190000
1$
b10100000 %
1#
#3200000
0#
0$
#3210000
1$
1#
b10100001 %
#3220000
0$
0#
#3230000
1#
b10100010 %
1$
#3240000
0$
0#
#3250000
1#
1$
b10100011 %
#3260000
0#
0$
#3270000
1$
b10100100 %
1#
#3280000
0#
0$
#3290000
1$
1#
b10100101 %
#3300000
0$
0#
#3310000
1#
b10100110 %
1$
#3320000
0$
0#
#3330000
1#
1$
b10100111 %
#3340000
0#
0$
#3350000
1$
b10101000 %
1#
#3360000
0#
0$
#3370000
1$
1#
b10101001 %
#3380000
0$
0#
#3390000
1#
b10101010 %
1$
#3400000
0$
0#
#3410000
1#
1$
b10101011 %
#3420000
0#
0$
#3430000
1$
b10101100 %
1#
#3440000
0#
0$
#3450000
1$
1#
b10101101 %
#3460000
0$
0#
#3470000
1#
b10101110 %
1$
#3480000
0$
0#
#3490000
1#
1$
b10101111 %
#3500000
0#
0$
#3510000
1$
b10110000 %
1#
#3520000
0#
0$
#3530000
1$
1#
b10110001 %
#3540000
0$
0#
#3550000
1#
b10110010 %
1$
#3560000
0$
0#
#3570000
1#
1$
b10110011 %
#3580000
0#
0$
#3590000
1$
b10110100 %
1#
#3600000
0#
0$
#3610000
1$
1#
b10110101 %
#3620000
0$
0#
#3630000
1#
b10110110 %
1$
#3640000
0$
0#
#3650000
1#
1$
b10110111 %
#3660000
0#
0$
#3670000
1$
b10111000 %
1#
#3680000
0#
0$
#3690000
1$
1#
b10111001 %
#3700000
0$
0#
#3710000
1#
b10111010 %
1$
1&
#3720000
0#
0$
#3730000
1$
0&
b10001110101000101011011111001010010100010110011101000101101111111110101011111100010010011001000001001011010010010110000010001001 "
1#
b10111011 %
#3740000
0$
0#
#3750000
1#
b10111100 %
1$
#3760000
0$
0#
#3770000
1#
1$
b10111101 %
#3780000
0#
0$
#3790000
1$
b10111110 %
1#
#3800000
0#
0$
#3810000
1$
1#
b10111111 %
#3820000
0$
0#
#3830000
1#
b11000000 %
1$
#3840000
0$
0#
#3850000
1#
1$
b11000001 %
#3860000
0#
0$
#3870000
1$
b11000010 %
1#
#3880000
0#
0$
#3890000
1$
1#
b11000011 %
#3900000
0$
0#
#3910000
1#
b11000100 %
1$
#3920000
0$
0#
#3930000
1#
1$
b11000101 %
#3940000
0#
0$
#3950000
1$
b11000110 %
1#
#3960000
0#
0$
#3970000
1$
1#
b11000111 %
#3980000
0$
0#
#3990000
1#
b11001000 %
1$
